Simulation – changepoint
…
Code

# 如果需要将所有文件的数据合并为一个大的数据框
combinedpergame_data <- do.call(rbind, pergame_list)
# 输出合并后的数据框
print(combinedpergame_data)

# A tibble: 740 × 46
      Rk Team      G    MP    FG   FGA `FG%`  `3P` `3PA` `3P%`  `2P` `2PA` `2P%`
 * <dbl> <chr> <dbl> <dbl> <dbl> <dbl> <dbl> <dbl> <dbl> <dbl> <dbl> <dbl> <dbl>
 1    26 Atla…    82  241.  35.1  81.3 0.431   4.1  11.4 0.357  31    69.9 0.443
 2    16 Bost…    82  242.  33.8  79.1 0.428   7.2  19.9 0.363  26.6  59.2 0.45 
 3    24 Char…    82  242.  34.1  79.3 0.431   4.1  12   0.346  30    67.3 0.446
 4    29 Chic…    82  242.  33.2  78.2 0.424   4    11.6 0.346  29.2  66.6 0.438
 5    22 Clev…    82  242.  35.2  79.7 0.442   2.7   8   0.334  32.6  71.6 0.455
 6     4 Dall…    82  242.  37.6  81.9 0.459   6.3  16.5 0.381  31.3  65.4 0.479
 7    11 Denv…    82  241.  36.3  83.9 0.433   6.2  17.6 0.355  30.1  66.3 0.454
 8    13 Detr…    82  242.  35.6  83.9 0.424   4.7  13.6 0.35   30.9  70.3 0.439
 9    21 Gold…    82  241.  35.8  87.5 0.409   3.4  11.8 0.293  32.4  75.7 0.427
10     9 Hous…    82  242.  35.9  79.2 0.453   6.1  17.2 0.357  29.7  62   0.48 
# ℹ 730 more rows
# ℹ 33 more variables: FT <dbl>, FTA <dbl>, `FT%` <dbl>, ORB <dbl>, DRB <dbl>,
#   TRB <dbl>, AST <dbl>, STL <dbl>, BLK <dbl>, TOV <dbl>, PF <dbl>, PTS <dbl>,
#   FG1 <dbl>, FGA1 <dbl>, `FG%1` <dbl>, `3P1` <dbl>, `3PA1` <dbl>,
#   `3P%1` <dbl>, `2P1` <dbl>, `2PA1` <dbl>, `2P%1` <dbl>, FT1 <dbl>,
#   FTA1 <dbl>, `FT%1` <dbl>, ORB1 <dbl>, DRB1 <dbl>, TRB1 <dbl>, AST1 <dbl>,
#   STL1 <dbl>, BLK1 <dbl>, TOV1 <dbl>, PF1 <dbl>, PTS1 <dbl>
…
Code

# 如果需要将所有文件的数据合并为一个大的数据框
combinedpergame_data_re <- do.call(rbind, pergame_list_re)
# 输出合并后的数据框
print(combinedpergame_data_re)

# A tibble: 720 × 46
      Rk Team      G    MP    FG   FGA `FG%`  `3P` `3PA` `3P%`  `2P` `2PA` `2P%`
 * <dbl> <chr> <dbl> <dbl> <dbl> <dbl> <dbl> <dbl> <dbl> <dbl> <dbl> <dbl> <dbl>
 1    26 Atla…    82  241.  35.1  81.3 0.431   4.1  11.4 0.357  31    69.9 0.443
 2    16 Bost…    82  242.  33.8  79.1 0.428   7.2  19.9 0.363  26.6  59.2 0.45 
 3    23 Broo…    82  241.  33.9  79.9 0.425   4.4  13.2 0.333  29.5  66.7 0.443
 4     0 Char…    82  242   35.7  80.6 0.443   4.8  13.7 0.354  30.8  66.9 0.461
 5    29 Chic…    82  242.  33.2  78.2 0.424   4    11.6 0.346  29.2  66.6 0.438
 6    22 Clev…    82  242.  35.2  79.7 0.442   2.7   8   0.334  32.6  71.6 0.455
 7     4 Dall…    82  242.  37.6  81.9 0.459   6.3  16.5 0.381  31.3  65.4 0.479
 8    11 Denv…    82  241.  36.3  83.9 0.433   6.2  17.6 0.355  30.1  66.3 0.454
 9    13 Detr…    82  242.  35.6  83.9 0.424   4.7  13.6 0.35   30.9  70.3 0.439
10    21 Gold…    82  241.  35.8  87.5 0.409   3.4  11.8 0.293  32.4  75.7 0.427
# ℹ 710 more rows
# ℹ 33 more variables: FT <dbl>, FTA <dbl>, `FT%` <dbl>, ORB <dbl>, DRB <dbl>,
#   TRB <dbl>, AST <dbl>, STL <dbl>, BLK <dbl>, TOV <dbl>, PF <dbl>, PTS <dbl>,
#   FG1 <dbl>, FGA1 <dbl>, `FG%1` <dbl>, `3P1` <dbl>, `3PA1` <dbl>,
#   `3P%1` <dbl>, `2P1` <dbl>, `2PA1` <dbl>, `2P%1` <dbl>, FT1 <dbl>,
#   FTA1 <dbl>, `FT%1` <dbl>, ORB1 <dbl>, DRB1 <dbl>, TRB1 <dbl>, AST1 <dbl>,
#   STL1 <dbl>, BLK1 <dbl>, TOV1 <dbl>, PF1 <dbl>, PTS1 <dbl>
…
